%YAML 1.1
%TAG !u! tag:unity3d.com,2011:
--- !u!74 &7400000
AnimationClip:
  m_ObjectHideFlags: 0
  m_CorrespondingSourceObject: {fileID: 0}
  m_PrefabInternal: {fileID: 0}
  m_Name: Run
  serializedVersion: 6
  m_Legacy: 0
  m_Compressed: 0
  m_UseHighQualityCurve: 1
  m_RotationCurves: []
  m_CompressedRotationCurves: []
  m_EulerCurves: []
  m_PositionCurves: []
  m_ScaleCurves: []
  m_FloatCurves: []
  m_PPtrCurves:
  - curve:
    - time: 0
      value: {fileID: 21300000, guid: e0cf4d51d613e45498b327da016b07da, type: 3}
    - time: 0.06666667
      value: {fileID: 21300000, guid: 40cd25772d3b13743b433b291f44a35e, type: 3}
    - time: 0.13333334
      value: {fileID: 21300000, guid: 0c9a6b5c1bd38a1428b492a70ade79ad, type: 3}
    - time: 0.2
      value: {fileID: 21300000, guid: 50c85b17f157dc74b86674129c1629a2, type: 3}
    - time: 0.26666668
      value: {fileID: 21300000, guid: 027bc592a14cece4282c4613d50bc3a3, type: 3}
    - time: 0.33333334
      value: {fileID: 21300000, guid: cf7723ebb2c5f324d8f54303e5b168e3, type: 3}
    - time: 0.4
      value: {fileID: 21300000, guid: 6d686c56f5429e04c9a14254e21edf35, type: 3}
    - time: 0.46666667
      value: {fileID: 21300000, guid: dfe36b2fe81c27842b544522676b2731, type: 3}
    - time: 0.53333336
      value: {fileID: 21300000, guid: 98d4acc1c88fbb94f9ab11df296c828b, type: 3}
    - time: 0.6
      value: {fileID: 21300000, guid: d87fc89b88fe05346a0de79a52e1a6d7, type: 3}
    - time: 0.6666667
      value: {fileID: 21300000, guid: 8f0b55e73de0dc14cb299ca3031f4171, type: 3}
    attribute: m_Sprite
    path: 
    classID: 114
    script: {fileID: -765806418, guid: f70555f144d8491a825f0804e09c671c, type: 3}
  m_SampleRate: 15
  m_WrapMode: 0
  m_Bounds:
    m_Center: {x: 0, y: 0, z: 0}
    m_Extent: {x: 0, y: 0, z: 0}
  m_ClipBindingConstant:
    genericBindings:
    - serializedVersion: 2
      path: 0
      attribute: 2015549526
      script: {fileID: -765806418, guid: f70555f144d8491a825f0804e09c671c, type: 3}
      typeID: 114
      customType: 0
      isPPtrCurve: 1
    pptrCurveMapping:
    - {fileID: 21300000, guid: e0cf4d51d613e45498b327da016b07da, type: 3}
    - {fileID: 21300000, guid: 40cd25772d3b13743b433b291f44a35e, type: 3}
    - {fileID: 21300000, guid: 0c9a6b5c1bd38a1428b492a70ade79ad, type: 3}
    - {fileID: 21300000, guid: 50c85b17f157dc74b86674129c1629a2, type: 3}
    - {fileID: 21300000, guid: 027bc592a14cece4282c4613d50bc3a3, type: 3}
    - {fileID: 21300000, guid: cf7723ebb2c5f324d8f54303e5b168e3, type: 3}
    - {fileID: 21300000, guid: 6d686c56f5429e04c9a14254e21edf35, type: 3}
    - {fileID: 21300000, guid: dfe36b2fe81c27842b544522676b2731, type: 3}
    - {fileID: 21300000, guid: 98d4acc1c88fbb94f9ab11df296c828b, type: 3}
    - {fileID: 21300000, guid: d87fc89b88fe05346a0de79a52e1a6d7, type: 3}
    - {fileID: 21300000, guid: 8f0b55e73de0dc14cb299ca3031f4171, type: 3}
  m_AnimationClipSettings:
    serializedVersion: 2
    m_AdditiveReferencePoseClip: {fileID: 0}
    m_AdditiveReferencePoseTime: 0
    m_StartTime: 0
    m_StopTime: 0.73333335
    m_OrientationOffsetY: 0
    m_Level: 0
    m_CycleOffset: 0
    m_HasAdditiveReferencePose: 0
    m_LoopTime: 1
    m_LoopBlend: 0
    m_LoopBlendOrientation: 0
    m_LoopBlendPositionY: 0
    m_LoopBlendPositionXZ: 0
    m_KeepOriginalOrientation: 0
    m_KeepOriginalPositionY: 1
    m_KeepOriginalPositionXZ: 0
    m_HeightFromFeet: 0
    m_Mirror: 0
  m_EditorCurves: []
  m_EulerEditorCurves: []
  m_HasGenericRootTransform: 0
  m_HasMotionFloatCurves: 0
  m_GenerateMotionCurves: 0
  m_Events: []
